…
**Research question 2: How do heights of trees of the same genus vary in
Vancouver?**

``` r
trees_count <- vancouver_trees %>%
    group_by(genus_name) %>%
    count(genus_name, name = "tree_count") %>% # Count statistics
    arrange(desc(tree_count))
trees_count
```

    ## # A tibble: 97 × 2
    ## # Groups:   genus_name [97]
    ##    genus_name tree_count
    ##    <chr>           <int>
    ##  1 ACER            36062
    ##  2 PRUNUS          30683
    ##  3 FRAXINUS         7381
    ##  4 TILIA            6773
    ##  5 QUERCUS          6119
    ##  6 CARPINUS         5806
    ##  7 FAGUS            4808
    ##  8 MALUS            4173
    ##  9 MAGNOLIA         3899
    ## 10 CRATAEGUS        3864
    ## # … with 87 more rows

``` r
# Choose the top 2 genus with the most trees (Make sure there are enought samples)
genuses <- c("ACER", "PRUNUS")

vancouver_trees_sample <- vancouver_trees %>%
    filter(genus_name %in% genuses)
vancouver_trees_sample
```

    ## # A tibble: 66,745 × 20
    ##    tree_id civic_number std_st…¹ genus…² speci…³ culti…⁴ commo…⁵ assig…⁶ root_…⁷
    ##      <dbl>        <dbl> <chr>    <chr>   <chr>   <chr>   <chr>   <chr>   <chr>  
    ##  1  149604         5032 WINDSOR… ACER    CAMPES… <NA>    HEDGE … N       N      
    ##  2  149617         4909 SHERBRO… ACER    PLATAN… COLUMN… COLUMN… N       N      
    ##  3  149618         4925 SHERBRO… ACER    PLATAN… COLUMN… COLUMN… N       N      
    ##  4  149619         4969 SHERBRO… ACER    PLATAN… COLUMN… COLUMN… N       N      
    ##  5  149640         6968 SELKIRK… ACER    PLATAN… COLUMN… COLUMN… N       N      
    ##  6  149680         5311 WINDSOR… ACER    CAMPES… <NA>    HEDGE … N       N      
    ##  7  149683         7011 SELKIRK… ACER    PLATAN… COLUMN… COLUMN… N       N      
    ##  8  149684         1223 W 54TH … ACER    PLATAN… COLUMN… COLUMN… N       N      
    ##  9  149686         5007 WINDSOR… ACER    CAMPES… <NA>    HEDGE … N       N      
    ## 10  149694         1292 W 49TH … ACER    PLATAN… COLUMN… COLUMN… N       N      
    ## # … with 66,735 more rows, 11 more variables: plant_area <chr>,
    ## #   on_street_block <dbl>, on_street <chr>, neighbourhood_name <chr>,
    ## #   street_side_name <chr>, height_range_id <dbl>, diameter <dbl>, curb <chr>,
    ## #   date_planted <date>, longitude <dbl>, latitude <dbl>, and abbreviated
    ## #   variable names ¹​std_street, ²​genus_name, ³​species_name, ⁴​cultivar_name,
    ## #   ⁵​common_name, ⁶​assigned, ⁷​root_barrier
…
**Research question 4: What is the distribution of diameters of trees?**

``` r
vancouver_trees_width <- vancouver_trees %>%
    # Create a categorical variable named width with 3 groups from the existing numerical variable diameter
    mutate(width=cut(diameter, breaks=c(0, 100, 200, 300), labels=c("thin","median","thick"))) 
vancouver_trees_width
```

    ## # A tibble: 146,611 × 21
    ##    tree_id civic_number std_st…¹ genus…² speci…³ culti…⁴ commo…⁵ assig…⁶ root_…⁷
    ##      <dbl>        <dbl> <chr>    <chr>   <chr>   <chr>   <chr>   <chr>   <chr>  
    ##  1  149556          494 W 58TH … ULMUS   AMERIC… BRANDON BRANDO… N       N      
    ##  2  149563          450 W 58TH … ZELKOVA SERRATA <NA>    JAPANE… N       N      
    ##  3  149579         4994 WINDSOR… STYRAX  JAPONI… <NA>    JAPANE… N       N      
    ##  4  149590          858 E 39TH … FRAXIN… AMERIC… AUTUMN… AUTUMN… Y       N      
    ##  5  149604         5032 WINDSOR… ACER    CAMPES… <NA>    HEDGE … N       N      
    ##  6  149616          585 W 61ST … PYRUS   CALLER… CHANTI… CHANTI… N       N      
    ##  7  149617         4909 SHERBRO… ACER    PLATAN… COLUMN… COLUMN… N       N      
    ##  8  149618         4925 SHERBRO… ACER    PLATAN… COLUMN… COLUMN… N       N      
    ##  9  149619         4969 SHERBRO… ACER    PLATAN… COLUMN… COLUMN… N       N      
    ## 10  149625          720 E 39TH … FRAXIN… AMERIC… AUTUMN… AUTUMN… N       N      
    ## # … with 146,601 more rows, 12 more variables: plant_area <chr>,
    ## #   on_street_block <dbl>, on_street <chr>, neighbourhood_name <chr>,
    ## #   street_side_name <chr>, height_range_id <dbl>, diameter <dbl>, curb <chr>,
    ## #   date_planted <date>, longitude <dbl>, latitude <dbl>, width <fct>, and
    ## #   abbreviated variable names ¹​std_street, ²​genus_name, ³​species_name,
    ## #   ⁴​cultivar_name, ⁵​common_name, ⁶​assigned, ⁷​root_barrier

``` r
# Only use trees of which the width are less than 100 inch
vancouver_thin_trees <- vancouver_trees_width %>%
    filter(width == "thin")
vancouver_thin_trees
```

    ## # A tibble: 146,509 × 21
    ##    tree_id civic_number std_st…¹ genus…² speci…³ culti…⁴ commo…⁵ assig…⁶ root_…⁷
    ##      <dbl>        <dbl> <chr>    <chr>   <chr>   <chr>   <chr>   <chr>   <chr>  
    ##  1  149556          494 W 58TH … ULMUS   AMERIC… BRANDON BRANDO… N       N      
    ##  2  149563          450 W 58TH … ZELKOVA SERRATA <NA>    JAPANE… N       N      
    ##  3  149579         4994 WINDSOR… STYRAX  JAPONI… <NA>    JAPANE… N       N      
    ##  4  149590          858 E 39TH … FRAXIN… AMERIC… AUTUMN… AUTUMN… Y       N      
    ##  5  149604         5032 WINDSOR… ACER    CAMPES… <NA>    HEDGE … N       N      
    ##  6  149616          585 W 61ST … PYRUS   CALLER… CHANTI… CHANTI… N       N      
    ##  7  149617         4909 SHERBRO… ACER    PLATAN… COLUMN… COLUMN… N       N      
    ##  8  149618         4925 SHERBRO… ACER    PLATAN… COLUMN… COLUMN… N       N      
    ##  9  149619         4969 SHERBRO… ACER    PLATAN… COLUMN… COLUMN… N       N      
    ## 10  149625          720 E 39TH … FRAXIN… AMERIC… AUTUMN… AUTUMN… N       N      
    ## # … with 146,499 more rows, 12 more variables: plant_area <chr>,
    ## #   on_street_block <dbl>, on_street <chr>, neighbourhood_name <chr>,
    ## #   street_side_name <chr>, height_range_id <dbl>, diameter <dbl>, curb <chr>,
    ## #   date_planted <date>, longitude <dbl>, latitude <dbl>, width <fct>, and
    ## #   abbreviated variable names ¹​std_street, ²​genus_name, ³​species_name,
    ## #   ⁴​cultivar_name, ⁵​common_name, ⁶​assigned, ⁷​root_barrier
…
